# 
# Wavefront material file
# Converted by the DEEP Exploration  Deep Exploration 5 5.0.5.1846 Release
# Right Hemisphere, LTD
# http://www.righthemisphere.com/
# 

newmtl TRUNK1
Ka 0.1 0.1 0.1
Kd 1 1 1
Ks 0 0 0
illum 2
Ns 2
map_Kd OC12brk1.tif
map_bump 
bump 
map_opacity 
map_d 
refl 
map_kS 
map_kA 
map_Ns 

newmtl BRANCH1
Ka 0.1 0.1 0.1
Kd 1 1 1
Ks 0 0 0
illum 2
Ns 2
map_Kd OC12brn1.tif
map_bump 
bump 
map_opacity 
map_d 
refl 
map_kS 
map_kA 
map_Ns 

newmtl BARK1
Ka 0.1 0.1 0.1
Kd 1 1 1
Ks 0 0 0
illum 2
Ns 2
map_Kd OC12brk1.tif
map_bump 
bump 
map_opacity 
map_d 
refl 
map_kS 
map_kA 
map_Ns 

newmtl FRUIT1
Ka 0.1 0.1 0.1
Kd 1 1 1
Ks 0 0 0
illum 2
Ns 2
map_Kd OC12frt1.tif
map_bump 
bump 
map_opacity 
map_d 
refl 
map_kS 
map_kA 
map_Ns 

newmtl FLOWER1
Ka 0.1 0.1 0.1
Kd 1 1 1
Ks 0 0 0
illum 2
Ns 2
map_Kd OC12flw1.tif
map_bump 
bump 
map_opacity 
map_d 
refl 
map_kS 
map_kA 
map_Ns 

newmtl LEAF1
Ka 0.1 0.1 0.1
Kd 1 1 1
Ks 0 0 0
illum 2
Ns 2
map_Kd OC12lef1.tif
map_bump 
bump 
map_opacity 
map_d 
refl 
map_kS 
map_kA 
map_Ns 

newmtl TWIG1
Ka 0.1 0.1 0.1
Kd 1 1 1
Ks 0 0 0
illum 2
Ns 2
map_Kd OC12brk1.tif
map_bump 
bump 
map_opacity 
map_d 
refl 
map_kS 
map_kA 
map_Ns 

newmtl BRANCH2
Ka 0.1 0.1 0.1
Kd 1 1 1
Ks 0 0 0
illum 2
Ns 2
map_Kd OC12brn2.tif
map_bump 
bump 
map_opacity 
map_d 
refl 
map_kS 
map_kA 
map_Ns 

newmtl BRANCH3
Ka 0.1 0.1 0.1
Kd 1 1 1
Ks 0 0 0
illum 2
Ns 2
map_Kd OC12brn3.tif
map_bump 
bump 
map_opacity 
map_d 
refl 
map_kS 
map_kA 
map_Ns 

newmtl ROOTS1
Ka 0.1 0.1 0.1
Kd 1 1 1
Ks 0 0 0
illum 2
Ns 2
map_Kd OC12brk1.tif
map_bump 
bump 
map_opacity 
map_d 
refl 
map_kS 
map_kA 
map_Ns 
